Creating Time Series Plots in ggPlot2
…
<img src="Flipbook_files/figure-html/Hourly-1.png" style="display: block; margin: auto;" />
---
class: split-40
count: false

.column[.content[

```r
*Fail_tsbl
```
]]
.column[.content.center[

```
# A tsibble: 22,499 x 4 [1h] <UTC>
   Date_time           Failures WkDay  Hour
   <dttm>                 <dbl> <ord> <int>
 1 2006-01-03 07:00:00        8 Tue       7
 2 2006-01-03 08:00:00        1 Tue       8
 3 2006-01-03 09:00:00        3 Tue       9
 4 2006-01-03 10:00:00        2 Tue      10
 5 2006-01-03 11:00:00        2 Tue      11
 6 2006-01-03 12:00:00        3 Tue      12
 7 2006-01-03 13:00:00        3 Tue      13
 8 2006-01-03 14:00:00        3 Tue      14
 9 2006-01-03 15:00:00       10 Tue      15
10 2006-01-03 16:00:00        1 Tue      16
# ... with 22,489 more rows
```
…
.column[.content[

```r
Fail_tsbl %>% 
* group_by(Hour)
```
]]
.column[.content.center[

```
# A tsibble: 22,499 x 4 [1h] <UTC>
# Groups:    Hour [24]
   Date_time           Failures WkDay  Hour
   <dttm>                 <dbl> <ord> <int>
 1 2006-01-03 07:00:00        8 Tue       7
 2 2006-01-03 08:00:00        1 Tue       8
 3 2006-01-03 09:00:00        3 Tue       9
 4 2006-01-03 10:00:00        2 Tue      10
 5 2006-01-03 11:00:00        2 Tue      11
 6 2006-01-03 12:00:00        3 Tue      12
 7 2006-01-03 13:00:00        3 Tue      13
 8 2006-01-03 14:00:00        3 Tue      14
 9 2006-01-03 15:00:00       10 Tue      15
10 2006-01-03 16:00:00        1 Tue      16
# ... with 22,489 more rows
```
…
.column[.content[

```r
Fail_tsbl %>% 
  group_by(Hour) %>% 
* summarise(Failures = sum(Failures))
```
]]
.column[.content.center[

```
# A tsibble: 22,499 x 3 [1h] <UTC>
# Key:       Hour [24]
    Hour Date_time           Failures
   <int> <dttm>                 <dbl>
 1     0 2006-01-04 00:00:00        2
 2     0 2006-01-05 00:00:00        0
 3     0 2006-01-06 00:00:00        0
 4     0 2006-01-07 00:00:00        2
 5     0 2006-01-08 00:00:00        0
 6     0 2006-01-09 00:00:00        0
 7     0 2006-01-10 00:00:00        0
 8     0 2006-01-11 00:00:00        0
 9     0 2006-01-12 00:00:00        0
10     0 2006-01-13 00:00:00        2
# ... with 22,489 more rows
```
…
<img src="Flipbook_files/figure-html/Daily-1.png" style="display: block; margin: auto;" />
---
class: split-40
count: false

.column[.content[

```r
*Fail_tsbl
```
]]
.column[.content.center[

```
# A tsibble: 22,499 x 4 [1h] <UTC>
   Date_time           Failures WkDay  Hour
   <dttm>                 <dbl> <ord> <int>
 1 2006-01-03 07:00:00        8 Tue       7
 2 2006-01-03 08:00:00        1 Tue       8
 3 2006-01-03 09:00:00        3 Tue       9
 4 2006-01-03 10:00:00        2 Tue      10
 5 2006-01-03 11:00:00        2 Tue      11
 6 2006-01-03 12:00:00        3 Tue      12
 7 2006-01-03 13:00:00        3 Tue      13
 8 2006-01-03 14:00:00        3 Tue      14
 9 2006-01-03 15:00:00       10 Tue      15
10 2006-01-03 16:00:00        1 Tue      16
# ... with 22,489 more rows
```
…
.column[.content[

```r
Fail_tsbl %>% 
* group_by(WkDay)
```
]]
.column[.content.center[

```
# A tsibble: 22,499 x 4 [1h] <UTC>
# Groups:    WkDay [7]
   Date_time           Failures WkDay  Hour
   <dttm>                 <dbl> <ord> <int>
 1 2006-01-03 07:00:00        8 Tue       7
 2 2006-01-03 08:00:00        1 Tue       8
 3 2006-01-03 09:00:00        3 Tue       9
 4 2006-01-03 10:00:00        2 Tue      10
 5 2006-01-03 11:00:00        2 Tue      11
 6 2006-01-03 12:00:00        3 Tue      12
 7 2006-01-03 13:00:00        3 Tue      13
 8 2006-01-03 14:00:00        3 Tue      14
 9 2006-01-03 15:00:00       10 Tue      15
10 2006-01-03 16:00:00        1 Tue      16
# ... with 22,489 more rows
```
…
.column[.content[

```r
Fail_tsbl %>% 
  group_by(WkDay) %>% 
* summarise(Failures = sum(Failures))
```
]]
.column[.content.center[

```
# A tsibble: 22,499 x 3 [1h] <UTC>
# Key:       WkDay [7]
   WkDay Date_time           Failures
   <ord> <dttm>                 <dbl>
 1 Sun   2006-01-08 00:00:00        0
 2 Sun   2006-01-08 01:00:00        4
 3 Sun   2006-01-08 02:00:00        2
 4 Sun   2006-01-08 03:00:00        1
 5 Sun   2006-01-08 04:00:00        0
 6 Sun   2006-01-08 05:00:00        0
 7 Sun   2006-01-08 06:00:00        0
 8 Sun   2006-01-08 07:00:00        3
 9 Sun   2006-01-08 08:00:00        0
10 Sun   2006-01-08 09:00:00        3
# ... with 22,489 more rows
```
…
